<svg width="32" height="32" viewBox="0 0 32 32" fill="none" xmlns="http://www.w3.org/2000/svg">
<path id="DashedOutline" d="M12.3989 0.952498L12.7356 2.36169C11.4086 2.70057 10.1386 3.2439 8.96825 3.97345L8.24803 2.7272C9.5363 1.92103 10.936 1.32258 12.3989 0.952498ZM19.6011 0.952498L19.2644 2.36169C20.5914 2.70057 21.8614 3.2439 23.0318 3.97345L23.7605 2.7272C22.4688 1.92174 21.0664 1.32337 19.6011 0.952498ZM3.15534 7.98523C2.3759 9.3184 1.79682 10.7661 1.43788 12.2789L2.80162 12.6268C3.12956 11.2556 3.65538 9.94327 4.36139 8.73387L3.15534 7.98523ZM2.40528 16C2.40518 15.2954 2.45646 14.5917 2.5587 13.895L1.1694 13.6748C0.943534 15.2147 0.943534 16.7809 1.1694 18.3208L2.5587 18.105C2.45663 17.4083 2.40534 16.7046 2.40528 16ZM23.752 29.2684L23.0318 28.0266C21.8632 28.7568 20.5945 29.3002 19.2687 29.6383L19.6054 31.0475C21.0665 30.6739 22.4645 30.074 23.752 29.2684ZM29.5947 16C29.5947 16.7046 29.5434 17.4083 29.4413 18.105L30.8306 18.3208C31.0565 16.7809 31.0565 15.2147 30.8306 13.6748L29.4413 13.895C29.5435 14.5917 29.5948 15.2954 29.5947 16ZM30.5621 19.7167L29.1984 19.3688C28.8712 20.7416 28.3454 22.0555 27.6386 23.2661L28.8447 24.0148C29.6249 22.6804 30.204 21.2312 30.5621 19.7167ZM18.0371 29.8893C16.6867 30.1007 15.3133 30.1007 13.9629 29.8893L13.7541 31.3249C15.2428 31.5584 16.7572 31.5584 18.2459 31.3249L18.0371 29.8893ZM26.944 24.3318C26.1339 25.4669 25.1627 26.469 24.0631 27.3043L24.8984 28.4757C26.1096 27.5544 27.1811 26.4516 28.0776 25.2038L26.944 24.3318ZM24.0631 4.69125C25.1628 5.52818 26.134 6.53179 26.944 7.66817L28.0776 6.79623C27.1842 5.54726 26.1156 4.44298 24.9069 3.51987L24.0631 4.69125ZM5.05604 7.66817C5.86597 6.53179 6.8372 5.52818 7.93693 4.69125L7.09312 3.51987C5.88443 4.44298 4.81577 5.54726 3.92244 6.79623L5.05604 7.66817ZM28.8447 7.98523L27.6386 8.73387C28.3453 9.94136 28.8711 11.2523 29.1984 12.6223L30.5621 12.2745C30.2032 10.7631 29.6241 9.31685 28.8447 7.98523ZM13.9629 2.11068C15.3133 1.89927 16.6867 1.89927 18.0371 2.11068L18.2459 0.675064C16.7572 0.441645 15.2428 0.441645 13.7541 0.675064L13.9629 2.11068ZM5.77626 28.8633L2.87407 29.559L3.55167 26.5601L2.18368 26.2298L1.50607 29.2288C1.46367 29.4147 1.45717 29.6074 1.48692 29.796C1.51668 29.9845 1.58211 30.1651 1.67949 30.3275C1.77686 30.4899 1.90425 30.6308 2.05439 30.7423C2.20452 30.8537 2.37444 30.9335 2.55444 30.977C2.76495 31.0255 2.98319 31.0255 3.19369 30.977L6.09589 30.2857L5.77626 28.8633ZM2.47347 24.9351L3.84573 25.261L4.31451 23.1825C3.62993 21.9958 3.12005 20.7106 2.80162 19.3688L1.43788 19.7167C1.74463 21.001 2.20863 22.2397 2.81866 23.4026L2.47347 24.9351ZM9.03644 28.0794L7.02493 28.5638L7.34455 29.9818L8.82335 29.6251C9.94797 30.2574 11.1469 30.7369 12.3904 31.0519L12.727 29.6427C11.4327 29.3094 10.1932 28.7796 9.04922 28.0706L9.03644 28.0794Z" fill="white"/>
<path id="Center" d="M3.80924 16.0048C3.80924 9.0513 9.25991 3.41014 15.9933 3.40573C18.2959 3.40509 20.5517 4.07677 22.5009 5.34337C28.1945 9.0513 29.8992 16.8283 26.3151 22.7116C22.731 28.595 15.2049 30.3609 9.50709 26.6574L4.50816 27.8684L5.68011 22.6984C4.46126 20.6927 3.81295 18.3731 3.80924 16.0048Z" fill="white"/>
</svg>
